allofus - All of Us in R
…
Accessing Data

Connecting to the database

A connection to a database is an object that allows you to interact with it from R. The allofus package relies on the bigrquery R package to create a connection to the Google BigQuery database when you run aou_connect().

library(allofus)
con <- aou_connect()

The object con is used to refer to the connection to the All of Us database. When you run the aou_connect() function, it also gets stored as the default connection for a session, so you don’t need to include it in other functions from the allofus package. For instance, you can run aou_tables() to see a list of tables in the database:

aou_tables()

#> # A tibble: 68 × 2
#>    table_name               columns                                             
#>    <chr>                    <chr>                                               
#>  1 concept_ancestor         ancestor_concept_id, descendant_concept_id, min_lev…
#>  2 cb_criteria_ancestor     ancestor_id, descendant_id                          
#>  3 attribute_definition     attribute_definition_id, attribute_name, attribute_…
#>  4 cdm_source               cdm_source_name, cdm_source_abbreviation, cdm_holde…
#>  5 concept_class            concept_class_id, concept_class_name, concept_class…
#>  6 concept                  concept_id, concept_name, domain_id, vocabulary_id,…
#>  7 concept_synonym          concept_id, concept_synonym_name, language_concept_…
#>  8 cb_criteria_relationship concept_id_1, concept_id_2                          
#>  9 concept_relationship     concept_id_1, concept_id_2, relationship_id, valid_…
#> 10 condition_occurrence     condition_occurrence_id, person_id, condition_conce…
#> # ℹ 58 more rows
…
